…
magic

library(vip)

## 
## Attaching package: 'vip'

## The following object is masked from 'package:utils':
## 
##     vi

films_train %>%  mutate(listed_in = factor(listed_in)) 

## # A tibble: 1,222 × 3
##    title                                   description                   liste…¹
##    <chr>                                   <chr>                         <fct>  
##  1 A Babysitter's Guide to Monster Hunting Recruited by a secret societ… Childr…
##  2 A Champion Heart                        When a grieving teen must wo… Childr…
##  3 A Christmas Prince                      Christmas comes early for an… Childr…
##  4 A Christmas Prince: The Royal Baby      Christmas brings the ultimat… Childr…
##  5 A Christmas Prince: The Royal Wedding   A year after helping Richard… Childr…
##  6 A Cinderella Story                      Teen Sam meets the boy of he… Childr…
##  7 A Fairly Odd Summer                     In this live-action adventur… Childr…
##  8 A Go! Go! Cory Carson Christmas         When a familiar-looking stra… Childr…
##  9 A Go! Go! Cory Carson Halloween         Cory, Chrissy and Freddie ar… Childr…
## 10 A Go! Go! Cory Carson Summer Camp       Cory's spending the summer a… Childr…
## # … with 1,212 more rows, and abbreviated variable name ¹​listed_in
## # ℹ Use `print(n = ...)` to see more rows
…
